[gd_scene load_steps=8 format=3 uid="uid://lpt0ap7n72ng"]

[ext_resource type="Texture2D" uid="uid://b6coj8pecfgfc" path="res://art/playerGrey_up1.png" id="1_3wxt8"]
[ext_resource type="Script" path="res://player.gd" id="1_n6154"]
[ext_resource type="Texture2D" uid="uid://bkrdlabpec37k" path="res://art/playerGrey_up2.png" id="2_l8oi6"]
[ext_resource type="Texture2D" uid="uid://dl1lkl1oroqy1" path="res://art/playerGrey_walk1.png" id="3_xxysc"]
[ext_resource type="Texture2D" uid="uid://cyvbft8ig5tqr" path="res://art/playerGrey_walk2.png" id="4_60mti"]

[sub_resource type="SpriteFrames" id="SpriteFrames_m0how"]
animations = [{
"frames": [{
"duration": 1.0,
"texture": ExtResource("1_3wxt8")
}, {
"duration": 1.0,
"texture": ExtResource("2_l8oi6")
}],
"loop": true,
"name": &"up",
"speed": 5.0
}, {
"frames": [{
"duration": 1.0,
"texture": ExtResource("3_xxysc")
}, {
"duration": 1.0,
"texture": ExtResource("4_60mti")
}],
"loop": true,
"name": &"walk",
"speed": 5.0
}]

[sub_resource type="CapsuleShape2D" id="CapsuleShape2D_o8nbk"]
radius = 26.0
height = 68.0

[node name="Player" type="Area2D"]
script = ExtResource("1_n6154")
metadata/_edit_group_ = true

[node name="AnimatedSprite2D" type="AnimatedSprite2D" parent="."]
scale = Vector2(0.5, 0.5)
sprite_frames = SubResource("SpriteFrames_m0how")
animation = &"walk"

[node name="CollisionShape2D" type="CollisionShape2D" parent="."]
shape = SubResource("CapsuleShape2D_o8nbk")

[connection signal="body_entered" from="." to="." method="_on_body_entered"]
